{
  "count": 37,
  "next": "https://rolling-api.vercel.app/2-12/recipients/?limit=16&offset=16",
  "previous": null,
  "results": [
    {
      "id": 3352,
      "name": "sdasd",
      "backgroundColor": "blue",
      "backgroundImageURL": null,
      "createdAt": "2024-03-02T04:28:38.531895Z",
      "messageCount": 0,
      "recentMessages": [],
      "reactionCount": 7,
      "topReactions": [
        {
          "id": 2864,
          "emoji": "ğŸ˜‡",
          "count": 1
        },
        {
          "id": 2865,
          "emoji": "ğŸ˜…",
          "count": 1
        },
        {
          "id": 2863,
          "emoji": "ğŸ˜„",
          "count": 1
        }
      ]
    },
    {
      "id": 3347,
      "name": "asdasdasd",
      "backgroundColor": "beige",
      "backgroundImageURL": "https://picsum.photos/id/24/3840/2160",
      "createdAt": "2024-03-02T04:25:25.076684Z",
      "messageCount": 0,
      "recentMessages": [],
      "reactionCount": 2,
      "topReactions": [
        {
          "id": 2861,
          "emoji": "ğŸ˜…",
          "count": 1
        },
        {
          "id": 2862,
          "emoji": "ğŸ˜‚",
          "count": 1
        }
      ]
    },
    {
      "id": 2216,
      "name": "ì•ˆë…• ë‚´ì´ë¦„ì€",
      "backgroundColor": "beige",
      "backgroundImageURL": "https://picsum.photos/id/24/3840/2160",
      "createdAt": "2023-12-21T14:48:00.688999Z",
      "messageCount": 1,
      "recentMessages": [
        {
          "id": 3900,
          "recipientId": 2216,
          "sender": "ì‚¬ê³¼",
          "profileImageURL": "https://picsum.photos/id/859/100/100",
          "relationship": "ì¹œêµ¬",
          "content": "<em>ì‚¬ê³¼ì‚¬ê³¼ </em>",
          "font": "ë‚˜ëˆ”ëª…ì¡°",
          "createdAt": "2023-12-21T14:48:19.726036Z"
        }
      ],
      "reactionCount": 52,
      "topReactions": [
        {
          "id": 2791,
          "emoji": "ğŸ« ",
          "count": 33
        },
        {
          "id": 2793,
          "emoji": "ğŸ˜‰",
          "count": 9
        },
        {
          "id": 2789,
          "emoji": "ğŸ™‚",
          "count": 8
        }
      ]
    },
    {
      "id": 2202,
      "name": "ë§ëƒ¥ëƒ¥",
      "backgroundColor": "purple",
      "backgroundImageURL": null,
      "createdAt": "2023-12-21T14:02:39.709276Z",
      "messageCount": 0,
      "recentMessages": [],
      "reactionCount": 0,
      "topReactions": []
    },
    {
      "id": 2201,
      "name": "ëŒ€ìƒí˜",
      "backgroundColor": "beige",
      "backgroundImageURL": "https://picsum.photos/id/599/3840/2160",
      "createdAt": "2023-12-21T14:00:33.936272Z",
      "messageCount": 0,
      "recentMessages": [],
      "reactionCount": 3,
      "topReactions": [
        {
          "id": 2667,
          "emoji": "ğŸ¤©",
          "count": 2
        },
        {
          "id": 1815,
          "emoji": "ğŸ˜†",
          "count": 1
        }
      ]
    },
    {
      "id": 2114,
      "name": "ì•ˆë…•ì•ˆë…•",
      "backgroundColor": "beige",
      "backgroundImageURL": "https://picsum.photos/id/24/3840/2160",
      "createdAt": "2023-12-21T10:46:56.564129Z",
      "messageCount": 0,
      "recentMessages": [],
      "reactionCount": 0,
      "topReactions": []
    },
    {
      "id": 2025,
      "name": "ë°•ì§€ì›-ì—¬",
      "backgroundColor": "purple",
      "backgroundImageURL": "https://picsum.photos/id/683/3840/2160",
      "createdAt": "2023-12-21T06:34:17.004869Z",
      "messageCount": 1,
      "recentMessages": [
        {
          "id": 3691,
          "recipientId": 2025,
          "sender": "ë‚˜ì—ìš”",
          "profileImageURL": "https://learn-codeit-kr-static.s3.ap-northeast-2.amazonaws.com/sprint-proj-image/default_avatar.png",
          "relationship": "ë™ë£Œ",
          "content": "ì–¸ì œë‚˜ ì—´ì‹¬íˆ í•˜ê³  ë©‹ìˆì–´ìš” êµ¿",
          "font": "Noto Sans",
          "createdAt": "2023-12-21T07:12:32.014657Z"
        }
      ],
      "reactionCount": 143,
      "topReactions": [
        {
          "id": 3024,
          "emoji": "ğŸ˜ˆ",
          "count": 35
        },
        {
          "id": 1754,
          "emoji": "ğŸ˜ƒ",
          "count": 33
        },
        {
          "id": 3025,
          "emoji": "ğŸ«¤",
          "count": 32
        }
      ]
    },
    {
      "id": 1975,
      "name": "ì„±ì€ì§€",
      "backgroundColor": "beige",
      "backgroundImageURL": "https://picsum.photos/id/599/3840/2160",
      "createdAt": "2023-12-21T02:34:28.193485Z",
      "messageCount": 1,
      "recentMessages": [
        {
          "id": 3685,
          "recipientId": 1975,
          "sender": "ì´ìœ ì¤€",
          "profileImageURL": "https://picsum.photos/id/1082/100/100",
          "relationship": "ê°€ì¡±",
          "content": "ì—„ë§ˆ ì‚¬ë‘í•´ìš§ ìš¸ë„ë¼!!!!",
          "font": "Noto Sans",
          "createdAt": "2023-12-21T06:56:00.283765Z"
        }
      ],
      "reactionCount": 61,
      "topReactions": [
        {
          "id": 2854,
          "emoji": "ğŸ˜",
          "count": 15
        },
        {
          "id": 1665,
          "emoji": "ğŸ™",
          "count": 6
        },
        {
          "id": 1674,
          "emoji": "ğŸ‘",
          "count": 6
        }
      ]
    },
    {
      "id": 1290,
      "name": "ë¦¬ì•¡íŠ¸ë§¨",
      "backgroundColor": "beige",
      "backgroundImageURL": null,
      "createdAt": "2023-12-17T08:44:57.086319Z",
      "messageCount": 1,
      "recentMessages": [
        {
          "id": 3628,
          "recipientId": 1290,
          "sender": "ì´ì•¼",
          "profileImageURL": "https://picsum.photos/id/547/100/100",
          "relationship": "ì¹œêµ¬",
          "content": "ì•¼!!!!!!!!",
          "font": "Noto Sans",
          "createdAt": "2023-12-21T02:21:15.689168Z"
        }
      ],
      "reactionCount": 1,
      "topReactions": [
        {
          "id": 1633,
          "emoji": "ğŸ˜ƒ",
          "count": 1
        }
      ]
    },
    {
      "id": 1287,
      "name": "ë°•ì§€ì›",
      "backgroundColor": "beige",
      "backgroundImageURL": null,
      "createdAt": "2023-12-17T06:20:14.205847Z",
      "messageCount": 0,
      "recentMessages": [],
      "reactionCount": 0,
      "topReactions": []
    },
    {
      "id": 1241,
      "name": "ë§ëƒ¥ëƒ¥",
      "backgroundColor": "beige",
      "backgroundImageURL": null,
      "createdAt": "2023-12-16T05:17:47.334881Z",
      "messageCount": 0,
      "recentMessages": [],
      "reactionCount": 19,
      "topReactions": [
        {
          "id": 1806,
          "emoji": "ğŸ™‚",
          "count": 3
        },
        {
          "id": 1803,
          "emoji": "ğŸ˜ƒ",
          "count": 2
        },
        {
          "id": 2651,
          "emoji": "ğŸ˜™",
          "count": 2
        }
      ]
    },
    {
      "id": 1240,
      "name": "ë§ëƒ¥ëƒ¥",
      "backgroundColor": "beige",
      "backgroundImageURL": null,
      "createdAt": "2023-12-16T04:55:47.903995Z",
      "messageCount": 1,
      "recentMessages": [
        {
          "id": 4257,
          "recipientId": 1240,
          "sender": "asdf",
          "profileImageURL": "https://picsum.photos/id/547/100/100",
          "relationship": "ì§€ì¸",
          "content": "zxcvzxcv",
          "font": "Noto Sans",
          "createdAt": "2023-12-23T00:21:32.257897Z"
        }
      ],
      "reactionCount": 0,
      "topReactions": []
    },
    {
      "id": 1124,
      "name": "ë§ëƒ¥ëƒ¥",
      "backgroundColor": "beige",
      "backgroundImageURL": null,
      "createdAt": "2023-12-15T07:46:31.058800Z",
      "messageCount": 0,
      "recentMessages": [],
      "reactionCount": 0,
      "topReactions": []
    },
    {
      "id": 1122,
      "name": "í™€ë¡¤ë¡¤",
      "backgroundColor": "beige",
      "backgroundImageURL": null,
      "createdAt": "2023-12-15T07:05:28.275223Z",
      "messageCount": 0,
      "recentMessages": [],
      "reactionCount": 0,
      "topReactions": []
    },
    {
      "id": 1121,
      "name": "ë§ëƒ¥ëƒ¥",
      "backgroundColor": "beige",
      "backgroundImageURL": null,
      "createdAt": "2023-12-15T07:05:01.073748Z",
      "messageCount": 0,
      "recentMessages": [],
      "reactionCount": 0,
      "topReactions": []
    },
    {
      "id": 1120,
      "name": "ë¦¬ì•¡íŠ¸ì‘ì• ",
      "backgroundColor": "beige",
      "backgroundImageURL": null,
      "createdAt": "2023-12-15T06:49:08.557836Z",
      "messageCount": 0,
      "recentMessages": [],
      "reactionCount": 1,
      "topReactions": [
        {
          "id": 1771,
          "emoji": "ğŸ˜†",
          "count": 1
        }
      ]
    }
  ]
}
